date,diff_put,diff_call,total,start_price_put,close_price_put,expiration,days,strike,strike_call
10/05/16,2.125,2.925,5.05,2.15,0.025,10/05/16,0,2155,2160
10/06/16,4.1,-4.5,-0.4,6.45,2.35,10/07/16,1,2150,2155
10/07/16,-2.45,2.325,-0.125,3.8,6.25,10/07/16,0,2160,2165
10/10/16,0.975,1.275,2.25,2.15,1.175,10/10/16,0,2165,2170
10/11/16,-7.7,4.8,-2.9,4.55,12.25,10/12/16,1,2150,2155
10/12/16,3.725,0.95,4.675,3.75,0.025,10/12/16,0,2130,2135
10/13/16,5.65,-3.2,2.45,8.15,2.5,10/14/16,1,2120,2125
10/14/16,-4.025,3.875,-0.15,2.425,6.45,10/14/16,0,2140,2145
10/17/16,2.675,4.925,7.6,2.7,0.025,10/17/16,0,2125,2130
10/18/16,0.3,2.9,3.2,6.15,5.85,10/19/16,1,2140,2145
10/19/16,1.525,1.875,3.4,1.55,0.025,10/19/16,0,2135,2145
10/20/16,2.6,-1.2,1.4,4.15,1.55,10/21/16,1,2135,2140
10/24/16,1.8,1.975,3.775,1.825,0.025,10/24/16,0,2150,2155
10/25/16,-1.2,2.875,1.675,4.25,5.45,10/26/16,1,2145,2150
10/26/16,2.475,-0.6,1.875,2.5,0.025,10/26/16,0,2130,2135
10/27/16,-5.75,4.025,-1.725,5.25,11,10/28/16,1,2140,2145
10/28/16,-1.25,4.025,2.775,2.8,4.05,10/28/16,0,2130,2135
10/31/16,2.6,4.875,7.475,2.625,0.025,10/31/16,0,2125,2130
11/01/16,-7.3,5.3,-2,5.95,13.25,11/02/16,1,2125,2130
11/02/16,-2.95,5.325,2.375,3.4,6.35,11/02/16,0,2105,2110
11/03/16,-6.6,5.95,-0.65,8.2,14.8,11/04/16,1,2100,2105
11/04/16,0.5,3.825,4.325,4.4,3.9,11/04/16,0,2090,2095
12/19/16,1.325,0.425,1.75,1.35,0.025,12/19/16,0,2255,2260
12/20/16,0.4,1.85,2.25,2.45,2.05,12/21/16,1,2265,2270
12/21/16,1.3,2.4,3.7,1.45,0.15,12/21/16,0,2265,2270
12/22/16,1.65,0.75,2.4,3,1.35,12/23/16,1,2255,2260
12/23/16,0.6,-0.475,0.125,0.625,0.025,12/23/16,0,2255,2260
12/27/16,0.925,2.3,3.225,0.95,0.025,12/27/16,0,2265,2270
12/28/16,-13.1,2.725,-10.375,1.05,14.15,12/28/16,0,2265,2270
12/29/16,-0.5,3.05,2.55,4.8,5.3,12/30/16,1,2250,2255
12/30/16,-0.35,3.475,3.125,3.5,3.85,12/30/16,0,2245,2250
01/03/17,1.725,0.75,2.475,1.75,0.025,01/03/17,0,2250,2255
01/04/17,1.7,-1.85,-0.15,1.725,0.025,01/04/17,0,2260,2265
01/05/17,1.45,0.35,1.8,4.05,2.6,01/06/17,1,2265,2270
01/06/17,1.225,-8.9,-7.675,1.25,0.025,01/06/17,0,2260,2265
01/09/17,1.35,2,3.35,1.825,0.475,01/09/17,0,2270,2275
01/10/17,1.35,0.25,1.6,3.25,1.9,01/11/17,1,2265,2270
01/11/17,2.25,-2.7,-0.45,2.275,0.025,01/11/17,0,2265,2270
01/12/17,2.85,-0.35,2.5,4.95,2.1,01/13/17,1,2265,2270
01/13/17,1.25,3.375,4.625,1.275,0.025,01/13/17,0,2270,2275
01/17/17,2.4,1.475,3.875,2.425,0.025,01/17/17,0,2265,2270
01/18/17,2.45,-0.275,2.175,2.475,0.025,01/18/17,0,2265,2270
01/19/17,-3.3,2.575,-0.725,3.25,6.55,01/20/17,1,2270,2275
01/20/17,0,0,0,0,0,01/20/17,0,2275,2280
01/23/17,-1.75,0.925,-0.825,1.925,3.675,01/23/17,0,2270,2275
03/03/17,2.6,2.05,4.65,2.625,0.025,03/03/17,0,2380,2385
03/06/17,2.35,0.775,3.125,2.375,0.025,03/06/17,0,2370,2375
03/07/17,0.375,1.775,2.15,3.1,2.725,03/08/17,1,2365,2370
03/08/17,-1.4,2.725,1.325,0.95,2.35,03/08/17,0,2365,2370
03/09/17,0.4,0.4,0.8,3.8,3.4,03/10/17,1,2360,2365
03/10/17,1.7,2.7,4.4,1.725,0.025,03/10/17,0,2370,2375
03/13/17,1.65,1.6,3.25,1.675,0.025,03/13/17,0,2370,2375
03/14/17,0.35,1.2,1.55,5.65,5.3,03/15/17,1,2365,2370
03/15/17,3.625,-10.65,-7.025,3.65,0.025,03/15/17,0,2365,2370
03/16/17,-0.95,2.225,1.275,4.35,5.3,03/17/17,1,2385,2390
